{
	"info": {
		"_postman_id": "f18dcb19-277d-49f6-a8b8-6c20f4a41c31",
		"name": "spring",
		"schema": "https://schema.getpostman.com/json/collection/v2.1.0/collection.json"
	},
	"item": [
		{
			"name": "test",
			"item": [
				{
					"name": "get number",
					"request": {
						"method": "GET",
						"header": [],
						"url": {
							"raw": "localhost:{{port}}/api/number",
							"host": [
								"localhost"
							],
							"port": "{{port}}",
							"path": [
								"api",
								"number"
							]
						}
					},
					"response": []
				},
				{
					"name": "get sring",
					"request": {
						"method": "GET",
						"header": [],
						"url": {
							"raw": "localhost:{{port}}/api/string",
							"host": [
								"localhost"
							],
							"port": "{{port}}",
							"path": [
								"api",
								"string"
							]
						}
					},
					"response": []
				}
			]
		},
		{
			"name": "customer",
			"item": [
				{
					"name": "delete customer",
					"request": {
						"method": "DELETE",
						"header": [],
						"url": {
							"raw": "localhost:{{port}}/api/v1/customer/3",
							"host": [
								"localhost"
							],
							"port": "{{port}}",
							"path": [
								"api",
								"v1",
								"customer",
								"3"
							]
						}
					},
					"response": []
				},
				{
					"name": "create customer",
					"request": {
						"method": "POST",
						"header": [],
						"body": {
							"mode": "raw",
							"raw": "{\n    \"name\": \"Miki\"\n}",
							"options": {
								"raw": {
									"language": "json"
								}
							}
						},
						"url": {
							"raw": "localhost:{{port}}/api/v1/customer",
							"host": [
								"localhost"
							],
							"port": "{{port}}",
							"path": [
								"api",
								"v1",
								"customer"
							]
						}
					},
					"response": []
				},
				{
					"name": "all customers",
					"request": {
						"method": "GET",
						"header": [],
						"url": {
							"raw": "localhost:{{port}}/api/v1/customer",
							"host": [
								"localhost"
							],
							"port": "{{port}}",
							"path": [
								"api",
								"v1",
								"customer"
							]
						}
					},
					"response": []
				}
			]
		}
	]
}